{
  "project_info": {
    "project_number": "149574427494",
    "firebase_url": "https://fight-covid-19-b92a8.firebaseio.com",
    "project_id": "fight-covid-19-b92a8",
    "storage_bucket": "fight-covid-19-b92a8.appspot.com"
  },
  "client": [
    {
      "client_info": {
        "mobilesdk_app_id": "1:149574427494:android:9cd7ee0daabe7c69d01ea7",
        "android_client_info": {
          "package_name": "com.med.app_intro_day21"
        }
      },
      "oauth_client": [
        {
          "client_id": "149574427494-pogfep5urpk4786nh6lhhtrgjph8r1q5.apps.googleusercontent.com",
          "client_type": 1,
          "android_info": {
            "package_name": "com.med.app_intro_day21",
            "certificate_hash": "8b9220ccb3eb82b03dd627578833e2bf2fbcf3df"
          }
        },
        {
          "client_id": "149574427494-93fie54fp2qacc7rl95mj86khdnhg2a7.apps.googleusercontent.com",
          "client_type": 3
        }
      ],
      "api_key": [
        {
          "current_key": "AIzaSyB4zJ-QLrj9Xkn18vR30xKn_E74gp6299s"
        }
      ],
      "services": {
        "appinvite_service": {
          "other_platform_oauth_client": [
            {
              "client_id": "149574427494-93fie54fp2qacc7rl95mj86khdnhg2a7.apps.googleusercontent.com",
              "client_type": 3
            }
          ]
        }
      }
    }
  ],
  "configuration_version": "1"
}